…
# ZIP / Neighborhood reference
zip_ref <- read_csv(zip_path, show_col_types = FALSE) %>%
  clean_names()

# Zillow ZORI by ZIP (wide by month)
zori_raw <- read_csv(zori_path, show_col_types = FALSE) %>%
  clean_names()

zip_ref
```

    ## # A tibble: 322 × 7
    ##    county state_fips county_code county_fips zip_code file_date neighborhood    
    ##    <chr>       <dbl> <chr>             <dbl>    <dbl> <chr>     <chr>           
    ##  1 Bronx          36 005               36005    10451 7/25/07   High Bridge and…
    ##  2 Bronx          36 005               36005    10452 7/25/07   High Bridge and…
    ##  3 Bronx          36 005               36005    10453 7/25/07   Central Bronx   
    ##  4 Bronx          36 005               36005    10454 7/25/07   Hunts Point and…
    ##  5 Bronx          36 005               36005    10455 7/25/07   Hunts Point and…
    ##  6 Bronx          36 005               36005    10456 7/25/07   High Bridge and…
    ##  7 Bronx          36 005               36005    10457 7/25/07   Central Bronx   
    ##  8 Bronx          36 005               36005    10458 7/25/07   Bronx Park and …
    ##  9 Bronx          36 005               36005    10459 7/25/07   Hunts Point and…
    ## 10 Bronx          36 005               36005    10460 7/25/07   Central Bronx   
    ## # ℹ 312 more rows

``` r
zori_raw
```

    ## # A tibble: 149 × 125
    ##    region_id size_rank region_name region_type state_name state city     metro  
    ##        <dbl>     <dbl>       <dbl> <chr>       <chr>      <chr> <chr>    <chr>  
    ##  1     62080         4       11368 zip         NY         NY    New York New Yo…
    ##  2     62093         7       11385 zip         NY         NY    New York New Yo…
    ##  3     62019         9       11208 zip         NY         NY    New York New Yo…
    ##  4     62046        16       11236 zip         NY         NY    New York New Yo…
    ##  5     61807        17       10467 zip         NY         NY    New York New Yo…
    ##  6     62085        18       11373 zip         NY         NY    New York New Yo…
    ##  7     62037        19       11226 zip         NY         NY    New York New Yo…
    ##  8     62018        20       11207 zip         NY         NY    New York New Yo…
    ##  9     61639        29       10025 zip         NY         NY    New York New Yo…
    ## 10     62025        32       11214 zip         NY         NY    New York New Yo…
    ## # ℹ 139 more rows
    ## # ℹ 117 more variables: county_name <chr>, x2015_01_31 <dbl>,
    ## #   x2015_02_28 <dbl>, x2015_03_31 <dbl>, x2015_04_30 <dbl>, x2015_05_31 <dbl>,
    ## #   x2015_06_30 <dbl>, x2015_07_31 <dbl>, x2015_08_31 <dbl>, x2015_09_30 <dbl>,
    ## #   x2015_10_31 <dbl>, x2015_11_30 <dbl>, x2015_12_31 <dbl>, x2016_01_31 <dbl>,
    ## #   x2016_02_29 <dbl>, x2016_03_31 <dbl>, x2016_04_30 <dbl>, x2016_05_31 <dbl>,
    ## #   x2016_06_30 <dbl>, x2016_07_31 <dbl>, x2016_08_31 <dbl>, …
…
# Select only necessary data from the Zip Code reference
zip_ref_clean <- zip_ref %>%
  transmute(
    county = county,
    zip = as.character(zip_code),
    neighborhood = neighborhood,
    borough = county_to_borough(county)
  ) %>%
  distinct()

zip_ref_clean
```

    ## # A tibble: 322 × 4
    ##    county zip   neighborhood               borough
    ##    <chr>  <chr> <chr>                      <chr>  
    ##  1 Bronx  10451 High Bridge and Morrisania Bronx  
    ##  2 Bronx  10452 High Bridge and Morrisania Bronx  
    ##  3 Bronx  10453 Central Bronx              Bronx  
    ##  4 Bronx  10454 Hunts Point and Mott Haven Bronx  
    ##  5 Bronx  10455 Hunts Point and Mott Haven Bronx  
    ##  6 Bronx  10456 High Bridge and Morrisania Bronx  
    ##  7 Bronx  10457 Central Bronx              Bronx  
    ##  8 Bronx  10458 Bronx Park and Fordham     Bronx  
    ##  9 Bronx  10459 Hunts Point and Mott Haven Bronx  
    ## 10 Bronx  10460 Central Bronx              Bronx  
    ## # ℹ 312 more rows
…
## Missing ZIP Codes in Zori

``` r
zips_in_ref_not_in_zori <- setdiff(zip_ref_clean$zip, unique(zori_tidy$zip))

zips_missing_tbl <- tibble(zip = zips_in_ref_not_in_zori) %>%
  left_join(zip_ref_clean, by = "zip") %>%
  arrange(borough, zip)

zips_missing_tbl %>% slice_head(n = 30)
```

    ## # A tibble: 30 × 4
    ##    zip   county neighborhood               borough 
    ##    <chr> <chr>  <chr>                      <chr>   
    ##  1 10464 Bronx  Southeast Bronx            Bronx   
    ##  2 10474 Bronx  Hunts Point and Mott Haven Bronx   
    ##  3 10475 Bronx  Northeast Bronx            Bronx   
    ##  4 10499 Bronx  <NA>                       Bronx   
    ##  5 10550 Bronx  <NA>                       Bronx   
    ##  6 10704 Bronx  <NA>                       Bronx   
    ##  7 10705 Bronx  <NA>                       Bronx   
    ##  8 10803 Bronx  <NA>                       Bronx   
    ##  9 11202 Kings  <NA>                       Brooklyn
    ## 10 11224 Kings  Southern Brooklyn          Brooklyn
    ## # ℹ 20 more rows
…
